Homework 2 vignette
…
  } )
  difference <- os_resid_gd - os_resids_lm
  df <- cbind.data.frame(os_resid_gd, os_resids_lm, difference)
  tibble::as.tibble(df)
#> Warning: `as.tibble()` is deprecated as of tibble 2.0.0.
#> Please use `as_tibble()` instead.
#> The signature and semantics have changed, see `?as_tibble`.
#> This warning is displayed once every 8 hours.
#> Call `lifecycle::last_warnings()` to see where this warning was generated.
#> # A tibble: 150 x 3
#>    os_resid_gd os_resids_lm  difference
#>          <dbl>        <dbl>       <dbl>
#>  1     -0.0750      -0.0750  0.00000950
#>  2     -0.0390      -0.0390  0.00000432
#>  3     -0.320       -0.320   0.00000697
#>  4      0.326        0.326  -0.00000338
#>  5      0.316        0.316  -0.00000186
#>  6     -0.0678      -0.0678 -0.0000285 
#>  7     -0.545       -0.545   0.0000275 
#>  8      0.434        0.434   0.0000166 
#>  9     -0.0142      -0.0141 -0.0000288 
#> 10      0.102        0.102   0.00000898
#> # ... with 140 more rows
…
  } )
  
  #get difference, compare in tibble
  difference <- os_resids_ridge - os_resids_lm
  df <- cbind.data.frame(os_resid_gd, os_resids_lm, difference)
  tibble::as.tibble(df)
#> # A tibble: 150 x 3
#>    os_resid_gd os_resids_lm difference
#>          <dbl>        <dbl>      <dbl>
#>  1     -0.0750      -0.0315   0.00489 
#>  2     -0.0390      -0.330    0.00210 
#>  3     -0.320        0.302   -0.00130 
#>  4      0.326       -0.0851  -0.00444 
#>  5      0.316        0.453   -0.00244 
#>  6     -0.0678      -0.332   -0.00510 
#>  7     -0.545       -0.100    0.00200 
#>  8      0.434       -0.266   -0.000107
#>  9     -0.0142      -0.265   -0.00313 
#> 10      0.102        0.253   -0.00455 
#> # ... with 140 more rows
…
